<svg width="181" height="48" viewBox="0 0 181 48" fill="none" xmlns="http://www.w3.org/2000/svg">
<path d="M48.2237 14.2756C48.1101 13.1297 47.6224 12.2396 46.7607 11.6051C45.8989 10.9706 44.7294 10.6534 43.2521 10.6534C42.2483 10.6534 41.4008 10.7955 40.7095 11.0795C40.0182 11.3542 39.4879 11.7377 39.1186 12.2301C38.7588 12.7225 38.5788 13.2812 38.5788 13.9062C38.5599 14.4271 38.6688 14.8816 38.9055 15.2699C39.1518 15.6581 39.4879 15.9943 39.9141 16.2784C40.3402 16.553 40.8326 16.7945 41.3913 17.0028C41.95 17.2017 42.5466 17.3722 43.1811 17.5142L45.7947 18.1392C47.0637 18.4233 48.2285 18.8021 49.2891 19.2756C50.3497 19.7491 51.2682 20.3314 52.0447 21.0227C52.8213 21.714 53.4226 22.5284 53.8487 23.4659C54.2843 24.4034 54.5069 25.4782 54.5163 26.6903C54.5069 28.4706 54.0523 30.0142 53.1527 31.321C52.2625 32.6184 50.9747 33.6269 49.2891 34.3466C47.6129 35.0568 45.5911 35.4119 43.2237 35.4119C40.8752 35.4119 38.8298 35.0521 37.0874 34.3324C35.3544 33.6127 34.0002 32.5473 33.0249 31.1364C32.0589 29.7159 31.5523 27.9593 31.505 25.8665H37.4567C37.523 26.8419 37.8023 27.6562 38.2947 28.3097C38.7966 28.9536 39.4643 29.4413 40.2976 29.7727C41.1404 30.0947 42.0921 30.2557 43.1527 30.2557C44.1944 30.2557 45.0987 30.1042 45.8658 29.8011C46.6423 29.4981 47.2436 29.0767 47.6697 28.5369C48.0959 27.9972 48.3089 27.3769 48.3089 26.6761C48.3089 26.0227 48.1148 25.4735 47.7266 25.0284C47.3478 24.5833 46.7891 24.2045 46.0504 23.892C45.3213 23.5795 44.4264 23.2955 43.3658 23.0398L40.1982 22.2443C37.7455 21.6477 35.8089 20.715 34.3885 19.446C32.968 18.1771 32.2625 16.4678 32.272 14.3182C32.2625 12.5568 32.7313 11.018 33.6783 9.7017C34.6347 8.38542 35.9463 7.35795 37.6129 6.61932C39.2796 5.88068 41.1735 5.51136 43.2947 5.51136C45.4538 5.51136 47.3383 5.88068 48.9482 6.61932C50.5675 7.35795 51.8269 8.38542 52.7266 9.7017C53.6262 11.018 54.0902 12.5426 54.1186 14.2756H48.2237ZM58.6534 35V5.90909H64.804V17.9119H77.2898V5.90909H83.4261V35H77.2898V22.983H64.804V35H58.6534ZM94.6477 5.90909V35H88.4972V5.90909H94.6477ZM124.04 5.90909V35H118.728L106.072 16.6903H105.859V35H99.7081V5.90909H105.106L117.663 24.2045H117.918V5.90909H124.04ZM129.122 35V5.90909H148.724V10.9801H135.273V17.9119H147.716V22.983H135.273V29.929H148.781V35H129.122Z" fill="#F2AEC1"/>
<path d="M16.4421 38.8178C16.8493 39.0946 17.3363 39.2426 17.8353 39.2408V39.2344C18.3057 39.2354 18.7661 39.1037 19.1594 38.8557C19.5525 38.6077 19.8612 38.2543 20.0469 37.8393L21.0685 34.8569C21.3045 34.1813 21.701 33.5677 22.2265 33.0645C22.7521 32.5613 23.3925 32.1824 24.0968 31.9578L27.06 31.033C27.5374 30.872 27.9497 30.5706 28.2382 30.1717C28.5269 29.7727 28.677 29.2966 28.6673 28.811C28.6578 28.3254 28.4889 27.8551 28.1849 27.4669C27.8807 27.0788 27.4567 26.7926 26.9734 26.6491L24.0484 25.7371C23.341 25.5111 22.698 25.1298 22.171 24.6235C21.6438 24.1171 21.2468 23.4998 21.0118 22.8204L20.0485 19.9772C19.8805 19.5244 19.5699 19.1331 19.1595 18.8576C18.7491 18.5821 18.2596 18.4361 17.7589 18.44C17.2582 18.4439 16.7712 18.5974 16.3655 18.8792C15.9598 19.161 15.6557 19.5571 15.4953 20.0124L14.5237 22.8796C14.2894 23.5392 13.9021 24.1391 13.3911 24.6341C12.8801 25.1291 12.2587 25.5063 11.5737 25.7371L8.61213 26.6507C8.25984 26.769 7.94103 26.9643 7.6809 27.2212C7.42077 27.4781 7.22646 27.7896 7.11329 28.131C7.00013 28.4724 6.97123 28.8345 7.0289 29.1884C7.08654 29.5424 7.22916 29.8786 7.44549 30.1706C7.7403 30.569 8.15844 30.868 8.64046 31.025L11.5637 31.9354C12.2731 32.1632 12.9174 32.5467 13.4454 33.0554C13.5871 33.1904 13.7196 33.3342 13.842 33.4858C14.174 33.8982 14.4304 34.3619 14.6003 34.8569L15.5637 37.6969C15.7278 38.1492 16.0348 38.5412 16.4421 38.8178ZM15.8186 32.0186C15.6328 31.7855 15.4307 31.5647 15.2137 31.3578H15.2187C14.4139 30.5847 13.4323 30.0023 12.3521 29.657L9.68544 28.8443L12.3704 28.0059C13.4329 27.6527 14.3966 27.0697 15.187 26.3019C15.9739 25.5293 16.5672 24.5947 16.922 23.5692L17.7803 21.038L18.6403 23.5772C18.9992 24.6123 19.6052 25.5525 20.41 26.3228C21.2147 27.0932 22.1958 27.6723 23.2751 28.0139L25.9734 28.8491L23.3251 29.673C22.2478 30.0169 21.269 30.5972 20.4664 31.3679C19.6639 32.1387 19.0595 33.0786 18.7019 34.1129L17.8436 36.6441L16.9853 34.1081C16.7232 33.353 16.3287 32.6463 15.8186 32.0186ZM29.2195 46.8935C28.902 46.6762 28.663 46.3692 28.5362 46.0151L27.9895 44.4039C27.8832 44.0975 27.7047 43.8188 27.4679 43.5895C27.2304 43.3609 26.9404 43.1889 26.6212 43.0872L24.9696 42.5704C24.5856 42.4467 24.2524 42.2091 24.0179 41.892C23.7891 41.5845 23.6668 41.2157 23.668 40.8376C23.6685 40.4571 23.7926 40.0864 24.0229 39.7768C24.2518 39.4656 24.5773 39.232 24.9529 39.1096L26.6296 38.588C26.9412 38.4818 27.2234 38.3085 27.4545 38.0813C27.6857 37.8543 27.8595 37.5793 27.9629 37.2777L28.5029 35.6905C28.6299 35.3318 28.8698 35.0198 29.1897 34.7976C29.5095 34.5755 29.8932 34.4541 30.288 34.4504C30.6826 34.4467 31.0688 34.5609 31.393 34.7769C31.7173 34.9931 31.9634 35.3006 32.0978 35.6569L32.6461 37.2793C32.7534 37.5834 32.9328 37.8596 33.1698 38.0861C33.4069 38.3125 33.6954 38.4832 34.0127 38.5848L35.666 39.1016C36.0472 39.216 36.381 39.4427 36.6205 39.7496C36.8598 40.0565 36.9925 40.4279 36.9997 40.811C37.007 41.1944 36.8883 41.5702 36.6605 41.8851C36.4329 42.2 36.1077 42.438 35.731 42.5656L34.0411 43.092C33.7242 43.1956 33.4364 43.3675 33.1994 43.5943C32.9623 43.8228 32.7836 44.1011 32.6778 44.4071L32.1411 45.9895C32.0119 46.358 31.7638 46.6775 31.4328 46.9015C31.1128 47.1224 30.7286 47.241 30.3345 47.2407C29.934 47.2407 29.5438 47.1191 29.2195 46.8935ZM27.5019 40.841C28.1569 41.0643 28.7513 41.4259 29.2415 41.899C29.7318 42.3721 30.1053 42.9449 30.3345 43.5751C30.566 42.9478 30.9405 42.3782 31.4306 41.9075C31.9208 41.437 32.5143 41.0774 33.1678 40.8552C32.5038 40.6322 31.9004 40.2685 31.4028 39.7912C30.911 39.3212 30.5356 38.7508 30.3045 38.1225C30.0743 38.7464 29.7033 39.3138 29.2182 39.7839C28.734 40.2531 28.148 40.6141 27.5019 40.841Z" fill="#F2AEC1"/>
</svg>
