<svg width="30" height="29" viewBox="0 0 30 29" fill="none" xmlns="http://www.w3.org/2000/svg">
<path d="M9.44207 20.3779C9.84928 20.6547 10.3363 20.8027 10.8353 20.8009V20.7945C11.3057 20.7955 11.7661 20.6638 12.1594 20.4158C12.5525 20.1678 12.8612 19.8144 13.0469 19.3993L14.0685 16.417C14.3045 15.7413 14.701 15.1277 15.2265 14.6245C15.7521 14.1214 16.3925 13.7425 17.0968 13.5178L20.06 12.5931C20.5374 12.4321 20.9497 12.1307 21.2382 11.7318C21.5269 11.3328 21.677 10.8566 21.6673 10.3711C21.6578 9.88545 21.4889 9.41511 21.1849 9.02698C20.8807 8.63884 20.4567 8.35267 19.9734 8.20917L17.0484 7.29719C16.341 7.07118 15.698 6.68986 15.171 6.18353C14.6438 5.67721 14.2468 5.05983 14.0118 4.38045L13.0485 1.53731C12.8805 1.08448 12.5699 0.693133 12.1595 0.417635C11.7491 0.142152 11.2596 -0.00379683 10.7589 7.50922e-05C10.2582 0.00394701 9.77116 0.157432 9.3655 0.439234C8.95984 0.721036 8.6557 1.11714 8.49532 1.57251L7.52367 4.43965C7.28936 5.09927 6.9021 5.69919 6.3911 6.19419C5.88009 6.68918 5.25869 7.06633 4.57374 7.29719L1.61213 8.21077C1.25984 8.32905 0.941027 8.52436 0.680899 8.78129C0.420771 9.03819 0.226459 9.34967 0.113294 9.69109C0.000129849 10.0325 -0.0287693 10.3945 0.0288961 10.7485C0.086545 11.1025 0.229159 11.4387 0.445487 11.7307C0.740298 12.1291 1.15844 12.4281 1.64046 12.5851L4.56374 13.4954C5.2731 13.7233 5.91736 14.1068 6.44536 14.6154C6.58713 14.7505 6.71962 14.8943 6.84202 15.0458C7.17396 15.4583 7.43039 15.922 7.60034 16.417L8.56365 19.2569C8.72777 19.7092 9.03484 20.1012 9.44207 20.3779ZM8.81865 13.5786C8.63282 13.3455 8.43069 13.1247 8.21366 12.9179H8.21866C7.41388 12.1448 6.43233 11.5624 5.35205 11.2171L2.68544 10.4043L5.37039 9.56594C6.43291 9.21276 7.39661 8.62975 8.18699 7.86198C8.97393 7.08934 9.56725 6.1548 9.92196 5.12923L10.7803 2.59809L11.6403 5.13723C11.9992 6.17235 12.6052 7.11258 13.41 7.8829C14.2147 8.65324 15.1958 9.23232 16.2751 9.57394L18.9734 10.4091L16.3251 11.2331C15.2478 11.5769 14.269 12.1572 13.4664 12.9279C12.6639 13.6988 12.0595 14.6386 11.7019 15.673L10.8436 18.2041L9.98529 15.6682C9.72323 14.913 9.32867 14.2063 8.81865 13.5786ZM22.2195 28.4535C21.902 28.2363 21.663 27.9292 21.5362 27.5752L20.9895 25.964C20.8832 25.6576 20.7047 25.3789 20.4679 25.1496C20.2304 24.921 19.9404 24.749 19.6212 24.6472L17.9696 24.1304C17.5856 24.0067 17.2524 23.7692 17.0179 23.452C16.7891 23.1445 16.6668 22.7757 16.668 22.3977C16.6685 22.0172 16.7926 21.6465 17.0229 21.3369C17.2518 21.0257 17.5773 20.7921 17.9529 20.6697L19.6296 20.1481C19.9412 20.0419 20.2234 19.8686 20.4545 19.6414C20.6857 19.4144 20.8595 19.1393 20.9629 18.8377L21.5029 17.2506C21.6299 16.8919 21.8698 16.5799 22.1897 16.3576C22.5095 16.1355 22.8932 16.0141 23.288 16.0104C23.6826 16.0068 24.0688 16.121 24.393 16.337C24.7173 16.5531 24.9634 16.8607 25.0978 17.217L25.6461 18.8393C25.7534 19.1435 25.9328 19.4196 26.1698 19.6462C26.4069 19.8726 26.6954 20.0433 27.0127 20.1449L28.666 20.6617C29.0472 20.7761 29.381 21.0028 29.6205 21.3097C29.8598 21.6166 29.9925 21.9879 29.9997 22.3711C30.007 22.7545 29.8883 23.1303 29.6605 23.4452C29.4329 23.76 29.1077 23.9981 28.731 24.1256L27.0411 24.652C26.7242 24.7557 26.4364 24.9275 26.1994 25.1544C25.9623 25.3829 25.7836 25.6611 25.6778 25.9672L25.1411 27.5496C25.0119 27.918 24.7638 28.2375 24.4328 28.4615C24.1128 28.6825 23.7286 28.801 23.3345 28.8007C22.934 28.8007 22.5438 28.6791 22.2195 28.4535ZM20.5019 22.401C21.1569 22.6244 21.7513 22.986 22.2415 23.4591C22.7318 23.9322 23.1053 24.505 23.3345 25.1352C23.566 24.5079 23.9405 23.9383 24.4306 23.4676C24.9208 22.997 25.5143 22.6375 26.1678 22.4153C25.5038 22.1922 24.9004 21.8286 24.4028 21.3513C23.911 20.8812 23.5356 20.3108 23.3045 19.6825C23.0743 20.3065 22.7033 20.8739 22.2182 21.3439C21.734 21.8132 21.148 22.1741 20.5019 22.401Z" fill="#F2AEC1"/>
</svg>
