[
    {
        "model": "photostudio.city", 
        "pk": 1, 
        "fields": {
            "city": "╠юёътр"
        }
    }, 
    {
        "model": "photostudio.city", 
        "pk": 4, 
        "fields": {
            "city": "╩ЁрёэюфрЁ"
        }
    }, 
    {
        "model": "photostudio.city", 
        "pk": 5, 
        "fields": {
            "city": "╤рэъЄ-╧хЄхЁсєЁу"
        }
    }
]
