[
    {
        "model": "photostudio.location", 
        "pk": 1, 
        "fields": {
            "city": 1, 
            "subway_station": 1, 
            "name": "Pink", 
            "size": 35, 
            "description": "╚эЄхЁ№хЁ т ьюэюїЁюьэ√ї юЄЄхэърї ё фюсртыхэшхь ьхЄрыышўхёъшї фхЄрыхщ. \r\n╨ючют√щ фштрэ ёЄры ръЎхэЄюь ш тфюїэютхэшхь ъ эрчтрэш■ чрыр. \r\n╨хътшчшЄ: трчр ё ЎтхЄрьш, сєЄ√ыър ш ёЄрърэ, цєЁэры√, ЎтхЄюўэр  ыюърЎш  т чрых.  \r\n╠хсхы№ ш юсюЁєфютрэшх т чрых: Ёючют√щ фштрэ, цєЁэры№э√щ ёЄюы, схыюх ъЁхёыю, ЄюЁ°хЁ, ЇшуєЁэюх чхЁърыю.", 
            "cost": 1700, 
            "location_photo": "locations/pink_hall.jpg"
        }
    }, 
    {
        "model": "photostudio.location", 
        "pk": 3, 
        "fields": {
            "city": 1, 
            "subway_station": 1, 
            "name": "Street", 
            "size": 35, 
            "description": "╚эЄхЁ№хЁ т ьюэюїЁюьэ√ї юЄЄхэърї ё фюсртыхэшхь ьхЄрыышўхёъшї фхЄрыхщ. \r\n╨ючют√щ фштрэ ёЄры ръЎхэЄюь ш тфюїэютхэшхь ъ эрчтрэш■ чрыр. \r\n╨хътшчшЄ: трчр ё ЎтхЄрьш, сєЄ√ыър ш ёЄрърэ, цєЁэры√, ЎтхЄюўэр  ыюърЎш  т чрых.  \r\n╠хсхы№ ш юсюЁєфютрэшх т чрых: Ёючют√щ фштрэ, цєЁэры№э√щ ёЄюы, схыюх ъЁхёыю, ЄюЁ°хЁ, ЇшуєЁэюх чхЁърыю.", 
            "cost": 1700, 
            "location_photo": "locations/pink_hall.jpg"
        }
    }
]
